<svg width="24" height="26" viewBox="0 0 24 26" fill="none" xmlns="http://www.w3.org/2000/svg">
<path d="M14.5 17.5V17H14H10H9.5V17.5V23.5C9.5 23.8978 9.34196 24.2794 9.06066 24.5607C8.77936 24.842 8.39782 25 8 25H2C1.60218 25 1.22064 24.842 0.93934 24.5607C0.658035 24.2794 0.5 23.8978 0.5 23.5L0.5 11.9377C0.5 11.9376 0.5 11.9376 0.5 11.9376C0.500078 11.7295 0.543454 11.5237 0.627371 11.3332C0.711173 11.1431 0.833576 10.9724 0.986814 10.832C0.987043 10.8318 0.987272 10.8316 0.987501 10.8314L10.9863 1.74503L10.9875 1.74391C11.264 1.49093 11.6252 1.35063 12 1.35063C12.3748 1.35063 12.736 1.49093 13.0125 1.74391L13.0137 1.74503L23.0125 10.8314C23.0127 10.8316 23.0129 10.8318 23.0131 10.8319C23.1664 10.9723 23.2888 11.143 23.3726 11.3332C23.4565 11.5237 23.4999 11.7294 23.5 11.9375C23.5 11.9375 23.5 11.9376 23.5 11.9377V23.5C23.5 23.8978 23.342 24.2794 23.0607 24.5607C22.7794 24.842 22.3978 25 22 25H16C15.6022 25 15.2206 24.842 14.9393 24.5607C14.658 24.2794 14.5 23.8978 14.5 23.5V17.5ZM15.5 23.5V24H16H22H22.5V23.5V11.9375V11.7163L22.3363 11.5675L12.3363 2.47996L12 2.17438L11.6637 2.47996L1.66373 11.5675L1.5 11.7163V11.9375V23.5V24H2H8H8.5V23.5V17.5C8.5 17.1022 8.65804 16.7206 8.93934 16.4393C9.22064 16.158 9.60218 16 10 16H14C14.3978 16 14.7794 16.158 15.0607 16.4393C15.342 16.7206 15.5 17.1022 15.5 17.5V23.5Z" fill="white" stroke="white"/>
</svg>
